%YAML 1.1
%TAG !u! tag:unity3d.com,2011:
--- !u!54 &-7876873313812745027
Rigidbody:
  m_ObjectHideFlags: 0
  m_CorrespondingSourceObject: {fileID: 0}
  m_PrefabInstance: {fileID: 0}
  m_PrefabAsset: {fileID: 0}
  m_GameObject: {fileID: 3991199488834056797}
  serializedVersion: 2
  m_Mass: 100
  m_Drag: 0
  m_AngularDrag: 0.05
  m_UseGravity: 1
  m_IsKinematic: 0
  m_Interpolate: 0
  m_Constraints: 112
  m_CollisionDetection: 0
--- !u!65 &6221730083343450947
BoxCollider:
  m_ObjectHideFlags: 0
  m_CorrespondingSourceObject: {fileID: 0}
  m_PrefabInstance: {fileID: 0}
  m_PrefabAsset: {fileID: 0}
  m_GameObject: {fileID: 3991199488834056797}
  m_Material: {fileID: 0}
  m_IsTrigger: 0
  m_Enabled: 1
  serializedVersion: 2
  m_Size: {x: 1, y: 1, z: 1}
  m_Center: {x: 0, y: 0, z: 0}
--- !u!1001 &4297277473204309772
PrefabInstance:
  m_ObjectHideFlags: 0
  serializedVersion: 2
  m_Modification:
    m_TransformParent: {fileID: 0}
    m_Modifications:
    - target: {fileID: -8679921383154817045, guid: f71d01f68fd8e5040aac3f7f0fcc316b,
        type: 3}
      propertyPath: m_LocalPosition.x
      value: 1674
      objectReference: {fileID: 0}
    - target: {fileID: -8679921383154817045, guid: f71d01f68fd8e5040aac3f7f0fcc316b,
        type: 3}
      propertyPath: m_LocalPosition.y
      value: 2536
      objectReference: {fileID: 0}
    - target: {fileID: -8679921383154817045, guid: f71d01f68fd8e5040aac3f7f0fcc316b,
        type: 3}
      propertyPath: m_LocalPosition.z
      value: 2717
      objectReference: {fileID: 0}
    - target: {fileID: -8679921383154817045, guid: f71d01f68fd8e5040aac3f7f0fcc316b,
        type: 3}
      propertyPath: m_LocalRotation.x
      value: 0
      objectReference: {fileID: 0}
    - target: {fileID: -8679921383154817045, guid: f71d01f68fd8e5040aac3f7f0fcc316b,
        type: 3}
      propertyPath: m_LocalRotation.y
      value: -0
      objectReference: {fileID: 0}
    - target: {fileID: -8679921383154817045, guid: f71d01f68fd8e5040aac3f7f0fcc316b,
        type: 3}
      propertyPath: m_LocalRotation.z
      value: -0
      objectReference: {fileID: 0}
    - target: {fileID: -8679921383154817045, guid: f71d01f68fd8e5040aac3f7f0fcc316b,
        type: 3}
      propertyPath: m_LocalRotation.w
      value: 1
      objectReference: {fileID: 0}
    - target: {fileID: -8679921383154817045, guid: f71d01f68fd8e5040aac3f7f0fcc316b,
        type: 3}
      propertyPath: m_RootOrder
      value: 0
      objectReference: {fileID: 0}
    - target: {fileID: -8679921383154817045, guid: f71d01f68fd8e5040aac3f7f0fcc316b,
        type: 3}
      propertyPath: m_LocalEulerAnglesHint.x
      value: 0
      objectReference: {fileID: 0}
    - target: {fileID: -8679921383154817045, guid: f71d01f68fd8e5040aac3f7f0fcc316b,
        type: 3}
      propertyPath: m_LocalEulerAnglesHint.y
      value: 0
      objectReference: {fileID: 0}
    - target: {fileID: -8679921383154817045, guid: f71d01f68fd8e5040aac3f7f0fcc316b,
        type: 3}
      propertyPath: m_LocalEulerAnglesHint.z
      value: 0
      objectReference: {fileID: 0}
    - target: {fileID: -8679921383154817045, guid: f71d01f68fd8e5040aac3f7f0fcc316b,
        type: 3}
      propertyPath: m_LocalScale.x
      value: 0.2
      objectReference: {fileID: 0}
    - target: {fileID: -8679921383154817045, guid: f71d01f68fd8e5040aac3f7f0fcc316b,
        type: 3}
      propertyPath: m_LocalScale.y
      value: 0.2
      objectReference: {fileID: 0}
    - target: {fileID: -8679921383154817045, guid: f71d01f68fd8e5040aac3f7f0fcc316b,
        type: 3}
      propertyPath: m_LocalScale.z
      value: 0.2
      objectReference: {fileID: 0}
    - target: {fileID: -7635826562936255635, guid: f71d01f68fd8e5040aac3f7f0fcc316b,
        type: 3}
      propertyPath: m_Materials.Array.data[0]
      value: 
      objectReference: {fileID: 2100000, guid: 3aa14077b7a2f324dabb092bbf2fe0d8, type: 2}
    - target: {fileID: 919132149155446097, guid: f71d01f68fd8e5040aac3f7f0fcc316b,
        type: 3}
      propertyPath: m_Name
      value: koza_1 Variant
      objectReference: {fileID: 0}
    m_RemovedComponents: []
  m_SourcePrefab: {fileID: 100100000, guid: f71d01f68fd8e5040aac3f7f0fcc316b, type: 3}
--- !u!1 &3991199488834056797 stripped
GameObject:
  m_CorrespondingSourceObject: {fileID: 919132149155446097, guid: f71d01f68fd8e5040aac3f7f0fcc316b,
    type: 3}
  m_PrefabInstance: {fileID: 4297277473204309772}
  m_PrefabAsset: {fileID: 0}
